[
    {
        "dimensions": [40, 30],
        "speedMultiplier": 1,
        "walls": [
            [5,5], [5,6], [5,7], [5,8], [5,9], [5,10], [5,11], [5,12],
            [35,15], [35,16], [35,17], [35,18], [35,19], [35,20], [35,21], [35,22]
        ],
        "snake": [20, 10],
        "numberOfRounds": 3
    },

    {
        "dimensions": [40, 35],
        "speedMultiplier": 1.5,
        "walls": [
            [5,5], [5,6], [5,7], [5,8], [5,9], [5,10], [5,11], [5,12],
            [35,15], [35,16], [35,17], [35,18], [35,19], [35,20], [35,21], [35,22],
            [5,25], [5,26], [5,27], [5,28], [5,29], [5,30], [5,31], [5,32],
            [35,25], [35,26], [35,27], [35,28], [35,29], [35,30], [35,31], [35,32]
        ],
        "snake": [20, 10],
        "numberOfRounds": 4
    },

    {
        "dimensions": [60, 40],
        "speedMultiplier": 2,
        "walls": [
            [5,5], [5,6], [5,7], [5,8], [5,9], [5,10], [5,11], [5,12],
            [35,15], [35,16], [35,17], [35,18], [35,19], [35,20], [35,21], [35,22],
            [10,25], [10,26], [10,27], [10,28], [10,29], [10,30], [10,31], [10,32],
            [45,25], [45,26], [45,27], [45,28], [45,29], [45,30], [45,31], [45,32]
        ],
        "snake": [20, 10],
        "numberOfRounds": 5
    }
]